<svg width="12" height="20" viewBox="0 0 12 20" fill="none" xmlns="http://www.w3.org/2000/svg">
<path d="M1.52978 18.4087L10.5298 9.90869L1.52979 1.40869" stroke="#79B7EA" stroke-width="2" stroke-linecap="round" stroke-linejoin="round"/>
</svg>
