<svg width="10" height="13" viewBox="0 0 10 13" fill="none" xmlns="http://www.w3.org/2000/svg">
<path d="M8.89697 0.875C8.81055 0.875 8.72266 0.898438 8.64209 0.952637L3.44922 4.34668H1.04688C0.917969 4.34668 0.8125 4.45215 0.8125 4.58105V8.7998C0.8125 8.92871 0.917969 9.03418 1.04688 9.03418H3.44922L8.64209 12.4282C8.72266 12.481 8.81201 12.5059 8.89697 12.5059C9.1416 12.5059 9.36719 12.311 9.36719 12.0356V1.34521C9.36719 1.06982 9.1416 0.875 8.89697 0.875Z" fill="#78B7E9"/>
</svg>
